Mesh.CharacteristicLengthFromCurvature = 1;
GlobalElementSize=5.987;
minElementsPerLayer=10;
Element_Size_by_Velocity_1=0.375*GlobalElementSize;
Element_Size_by_Thickness_1=100.0/minElementsPerLayer;
Element_Size_Layer_1 = (Element_Size_by_Velocity_1 > Element_Size_by_Thickness_1) ? Element_Size_by_Thickness_1 : Element_Size_by_Velocity_1;
Element_Size_by_Velocity_2=0.625*GlobalElementSize;
Element_Size_by_Thickness_2=300.0/minElementsPerLayer;
Element_Size_Layer_2 = (Element_Size_by_Velocity_2 > Element_Size_by_Thickness_2) ? Element_Size_by_Thickness_2 : Element_Size_by_Velocity_2;
Element_Size_by_Velocity_3=0.5*GlobalElementSize;
Element_Size_by_Thickness_3=10.0/minElementsPerLayer;
Element_Size_Layer_3 = (Element_Size_by_Velocity_3 > Element_Size_by_Thickness_3) ? Element_Size_by_Thickness_3 : Element_Size_by_Velocity_3;
Element_Size_by_Velocity_4=0.625*GlobalElementSize;
Element_Size_by_Thickness_4=190.0/minElementsPerLayer;
Element_Size_Layer_4 = (Element_Size_by_Velocity_4 > Element_Size_by_Thickness_4) ? Element_Size_by_Thickness_4 : Element_Size_by_Velocity_4;
Element_Size_by_Velocity_5=0.75*GlobalElementSize;
Element_Size_by_Thickness_5=200.0/minElementsPerLayer;
Element_Size_Layer_5 = (Element_Size_by_Velocity_5 > Element_Size_by_Thickness_5) ? Element_Size_by_Thickness_5 : Element_Size_by_Velocity_5;
Element_Size_by_Velocity_6=1.0*GlobalElementSize;
Element_Size_by_Thickness_6=300.0/minElementsPerLayer;
Element_Size_Layer_6 = (Element_Size_by_Velocity_6 > Element_Size_by_Thickness_6) ? Element_Size_by_Thickness_6 : Element_Size_by_Velocity_6;
Point(1)={ 0.0, 0.0,0., Element_Size_Layer_1};
Point(2)={ 2000.0, 0.0,0., Element_Size_Layer_1};
Line(1)={ 1, 2};
Element_Size_Interface_1 = (Element_Size_Layer_1 > Element_Size_Layer_2) ? Element_Size_Layer_2 : Element_Size_Layer_1;
Point(3)={ 0.0, -100.662749702,0., Element_Size_Interface_1};
Point(4)={ 83.3333333333, -71.791605869,0., Element_Size_Interface_1};
Point(5)={ 166.666666667, -82.3361755218,0., Element_Size_Interface_1};
Point(6)={ 250.0, -106.600409651,0., Element_Size_Interface_1};
Point(7)={ 333.333333333, -98.564641036,0., Element_Size_Interface_1};
Point(8)={ 416.666666667, -81.3854446795,0., Element_Size_Interface_1};
Point(9)={ 500.0, -70.5222705727,0., Element_Size_Interface_1};
Point(10)={ 583.333333333, -109.848750216,0., Element_Size_Interface_1};
Point(11)={ 666.666666667, -67.9574040299,0., Element_Size_Interface_1};
Point(12)={ 750.0, -102.857661797,0., Element_Size_Interface_1};
Point(13)={ 833.333333333, -127.169696287,0., Element_Size_Interface_1};
Point(14)={ 916.666666667, -116.740514152,0., Element_Size_Interface_1};
Point(15)={ 1000.0, -92.7012939651,0., Element_Size_Interface_1};
Point(16)={ 1083.33333333, -88.342846008,0., Element_Size_Interface_1};
Point(17)={ 1166.66666667, -71.2151276941,0., Element_Size_Interface_1};
Point(18)={ 1250.0, -81.9075377397,0., Element_Size_Interface_1};
Point(19)={ 1333.33333333, -139.01087769,0., Element_Size_Interface_1};
Point(20)={ 1416.66666667, -86.0188503674,0., Element_Size_Interface_1};
Point(21)={ 1500.0, -118.619350403,0., Element_Size_Interface_1};
Point(22)={ 1583.33333333, -113.558592203,0., Element_Size_Interface_1};
Point(23)={ 1666.66666667, -103.105098078,0., Element_Size_Interface_1};
Point(24)={ 1750.0, -107.485342325,0., Element_Size_Interface_1};
Point(25)={ 1833.33333333, -99.7724297786,0., Element_Size_Interface_1};
Point(26)={ 1916.66666667, -105.729768776,0., Element_Size_Interface_1};
Point(27)={ 2000.0, -119.44956071,0., Element_Size_Interface_1};
Spline(2)={ 3, 4, 5, 6, 7, 8, 9, 10, 11, 12, 13, 14, 15, 16, 17, 18, 19, 20, 21, 22, 23, 24, 25, 26, 27 };
Line(3)={ 3, 1};
Line(4)={ 27, 2};
Line Loop(1) = {2, 4, -1, -3};
Plane Surface(1) = {1};
Physical Surface("L1") = {1};
Element_Size_Interface_2 = (Element_Size_Layer_2 > Element_Size_Layer_3) ? Element_Size_Layer_3 : Element_Size_Layer_2;
Point(28)={ 0.0, -305.40447861,0., Element_Size_Interface_2};
Point(29)={ 222.222222222, -305.896367646,0., Element_Size_Interface_2};
Point(30)={ 444.444444444, -299.087277568,0., Element_Size_Interface_2};
Point(31)={ 666.666666667, -301.022333852,0., Element_Size_Interface_2};
Point(32)={ 888.888888889, -303.020982061,0., Element_Size_Interface_2};
Point(33)={ 1111.11111111, -303.561402719,0., Element_Size_Interface_2};
Point(34)={ 1333.33333333, -299.335186009,0., Element_Size_Interface_2};
Point(35)={ 1555.55555556, -301.467181593,0., Element_Size_Interface_2};
Point(36)={ 1777.77777778, -302.730416221,0., Element_Size_Interface_2};
Point(37)={ 2000.0, -297.195307846,0., Element_Size_Interface_2};
Spline(5)={ 28, 29, 30, 31, 32, 33, 34, 35, 36, 37 };
Line(6)={ 28, 3};
Line(7)={ 37, 27};
Line Loop(2) = {5, 7, -2, -6};
Plane Surface(2) = {2};
Physical Surface("L2") = {2};
Element_Size_Interface_3 = (Element_Size_Layer_3 > Element_Size_Layer_4) ? Element_Size_Layer_4 : Element_Size_Layer_3;
Point(38)={ 0.0, -307.468600496,0., Element_Size_Interface_3};
Point(39)={ 222.222222222, -308.385012634,0., Element_Size_Interface_3};
Point(40)={ 444.444444444, -310.426142062,0., Element_Size_Interface_3};
Point(41)={ 666.666666667, -311.657010598,0., Element_Size_Interface_3};
Point(42)={ 888.888888889, -310.787798136,0., Element_Size_Interface_3};
Point(43)={ 1111.11111111, -311.216226826,0., Element_Size_Interface_3};
Point(44)={ 1333.33333333, -309.60042761,0., Element_Size_Interface_3};
Point(45)={ 1555.55555556, -315.05283097,0., Element_Size_Interface_3};
Point(46)={ 1777.77777778, -311.638015042,0., Element_Size_Interface_3};
Point(47)={ 2000.0, -308.434919181,0., Element_Size_Interface_3};
Spline(8)={ 38, 39, 40, 41, 42, 43, 44, 45, 46, 47 };
Line(9)={ 38, 28};
Line(10)={ 47, 37};
Line Loop(3) = {8, 10, -5, -9};
Plane Surface(3) = {3};
Physical Surface("L3") = {3};
Element_Size_Interface_4 = (Element_Size_Layer_4 > Element_Size_Layer_5) ? Element_Size_Layer_5 : Element_Size_Layer_4;
Point(48)={ 0.0, -476.467020389,0., Element_Size_Interface_4};
Point(49)={ 105.263157895, -501.34445077,0., Element_Size_Interface_4};
Point(50)={ 210.526315789, -493.66991575,0., Element_Size_Interface_4};
Point(51)={ 315.789473684, -516.996929317,0., Element_Size_Interface_4};
Point(52)={ 421.052631579, -485.056392795,0., Element_Size_Interface_4};
Point(53)={ 526.315789474, -498.251575839,0., Element_Size_Interface_4};
Point(54)={ 631.578947368, -512.657595368,0., Element_Size_Interface_4};
Point(55)={ 736.842105263, -481.838215658,0., Element_Size_Interface_4};
Point(56)={ 842.105263158, -478.576645793,0., Element_Size_Interface_4};
Point(57)={ 947.368421053, -501.444437963,0., Element_Size_Interface_4};
Point(58)={ 1052.63157895, -510.102009658,0., Element_Size_Interface_4};
Point(59)={ 1157.89473684, -494.446577726,0., Element_Size_Interface_4};
Point(60)={ 1263.15789474, -484.725652595,0., Element_Size_Interface_4};
Point(61)={ 1368.42105263, -500.706108936,0., Element_Size_Interface_4};
Point(62)={ 1473.68421053, -475.790118832,0., Element_Size_Interface_4};
Point(63)={ 1578.94736842, -478.454874684,0., Element_Size_Interface_4};
Point(64)={ 1684.21052632, -496.940174065,0., Element_Size_Interface_4};
Point(65)={ 1789.47368421, -510.881280694,0., Element_Size_Interface_4};
Point(66)={ 1894.73684211, -471.398275923,0., Element_Size_Interface_4};
Point(67)={ 2000.0, -453.185508914,0., Element_Size_Interface_4};
Spline(11)={ 48, 49, 50, 51, 52, 53, 54, 55, 56, 57, 58, 59, 60, 61, 62, 63, 64, 65, 66, 67 };
Line(12)={ 48, 38};
Line(13)={ 67, 47};
Line Loop(4) = {11, 13, -8, -12};
Plane Surface(4) = {4};
Physical Surface("L4") = {4};
Element_Size_Interface_5 = (Element_Size_Layer_5 > Element_Size_Layer_6) ? Element_Size_Layer_6 : Element_Size_Layer_5;
Point(68)={ 0.0, -699.755891682,0., Element_Size_Interface_5};
Point(69)={ 105.263157895, -710.436542556,0., Element_Size_Interface_5};
Point(70)={ 210.526315789, -683.017169377,0., Element_Size_Interface_5};
Point(71)={ 315.789473684, -686.261785111,0., Element_Size_Interface_5};
Point(72)={ 421.052631579, -662.484264474,0., Element_Size_Interface_5};
Point(73)={ 526.315789474, -684.971692585,0., Element_Size_Interface_5};
Point(74)={ 631.578947368, -699.215488081,0., Element_Size_Interface_5};
Point(75)={ 736.842105263, -693.009906975,0., Element_Size_Interface_5};
Point(76)={ 842.105263158, -666.095847029,0., Element_Size_Interface_5};
Point(77)={ 947.368421053, -675.855467067,0., Element_Size_Interface_5};
Point(78)={ 1052.63157895, -687.67606466,0., Element_Size_Interface_5};
Point(79)={ 1157.89473684, -693.500722969,0., Element_Size_Interface_5};
Point(80)={ 1263.15789474, -687.79002885,0., Element_Size_Interface_5};
Point(81)={ 1368.42105263, -682.319176443,0., Element_Size_Interface_5};
Point(82)={ 1473.68421053, -676.158251774,0., Element_Size_Interface_5};
Point(83)={ 1578.94736842, -706.8209322,0., Element_Size_Interface_5};
Point(84)={ 1684.21052632, -687.072214686,0., Element_Size_Interface_5};
Point(85)={ 1789.47368421, -684.539771825,0., Element_Size_Interface_5};
Point(86)={ 1894.73684211, -671.493365343,0., Element_Size_Interface_5};
Point(87)={ 2000.0, -719.251159833,0., Element_Size_Interface_5};
Spline(14)={ 68, 69, 70, 71, 72, 73, 74, 75, 76, 77, 78, 79, 80, 81, 82, 83, 84, 85, 86, 87 };
Line(15)={ 68, 48};
Line(16)={ 87, 67};
Line Loop(5) = {14, 16, -11, -15};
Plane Surface(5) = {5};
Physical Surface("L5") = {5};
Element_Size_Interface_6 = Element_Size_Layer_6;
Point(88)={ 0.0, -1000.0,0., Element_Size_Interface_6};
Point(89)={ 2000.0, -1000.0,0., Element_Size_Interface_6};
Line(17)={ 88, 89};
Line(18)={ 88, 68};
Line(19)={ 89, 87};
Line Loop(6) = {17, 19, -14, -18};
Plane Surface(6) = {6};
Physical Surface("L6") = {6};
