Mesh.CharacteristicLengthFromCurvature = 1;
GlobalElementSize=63.75;
minElementsPerLayer=10;
Element_Size_by_Velocity_1=0.4166666666666667*GlobalElementSize;
Element_Size_by_Thickness_1=100.0/minElementsPerLayer;
Element_Size_Layer_1 = (Element_Size_by_Velocity_1 > Element_Size_by_Thickness_1) ? Element_Size_by_Thickness_1 : Element_Size_by_Velocity_1;
Element_Size_by_Velocity_2=0.16666666666666666*GlobalElementSize;
Element_Size_by_Thickness_2=300.0/minElementsPerLayer;
Element_Size_Layer_2 = (Element_Size_by_Velocity_2 > Element_Size_by_Thickness_2) ? Element_Size_by_Thickness_2 : Element_Size_by_Velocity_2;
Element_Size_by_Velocity_3=0.5555555555555556*GlobalElementSize;
Element_Size_by_Thickness_3=10.0/minElementsPerLayer;
Element_Size_Layer_3 = (Element_Size_by_Velocity_3 > Element_Size_by_Thickness_3) ? Element_Size_by_Thickness_3 : Element_Size_by_Velocity_3;
Element_Size_by_Velocity_4=0.16666666666666666*GlobalElementSize;
Element_Size_by_Thickness_4=190.0/minElementsPerLayer;
Element_Size_Layer_4 = (Element_Size_by_Velocity_4 > Element_Size_by_Thickness_4) ? Element_Size_by_Thickness_4 : Element_Size_by_Velocity_4;
Element_Size_by_Velocity_5=0.7777777777777778*GlobalElementSize;
Element_Size_by_Thickness_5=200.0/minElementsPerLayer;
Element_Size_Layer_5 = (Element_Size_by_Velocity_5 > Element_Size_by_Thickness_5) ? Element_Size_by_Thickness_5 : Element_Size_by_Velocity_5;
Element_Size_by_Velocity_6=1.0*GlobalElementSize;
Element_Size_by_Thickness_6=300.0/minElementsPerLayer;
Element_Size_Layer_6 = (Element_Size_by_Velocity_6 > Element_Size_by_Thickness_6) ? Element_Size_by_Thickness_6 : Element_Size_by_Velocity_6;
Point(1)={ 0.0, 0.0,0., Element_Size_Layer_1};
Point(2)={ 2000.0, 0.0,0., Element_Size_Layer_1};
Line(1)={ 1, 2};
Element_Size_Interface_1 = (Element_Size_Layer_1 > Element_Size_Layer_2) ? Element_Size_Layer_2 : Element_Size_Layer_1;
Point(3)={ 0.0, -102.44400487371497,0., Element_Size_Interface_1};
Point(4)={ 83.33333333333333, -110.32178660156875,0., Element_Size_Interface_1};
Point(5)={ 166.66666666666666, -101.54141982572726,0., Element_Size_Interface_1};
Point(6)={ 250.0, -132.39641862561706,0., Element_Size_Interface_1};
Point(7)={ 333.3333333333333, -124.55996626381021,0., Element_Size_Interface_1};
Point(8)={ 416.66666666666663, -99.47928493061625,0., Element_Size_Interface_1};
Point(9)={ 500.0, -82.17801248058515,0., Element_Size_Interface_1};
Point(10)={ 583.3333333333333, -125.81102824861186,0., Element_Size_Interface_1};
Point(11)={ 666.6666666666666, -101.40765427400977,0., Element_Size_Interface_1};
Point(12)={ 750.0, -133.4722935317676,0., Element_Size_Interface_1};
Point(13)={ 833.3333333333333, -118.47040924930516,0., Element_Size_Interface_1};
Point(14)={ 916.6666666666666, -118.03742355242929,0., Element_Size_Interface_1};
Point(15)={ 1000.0, -85.48334298117966,0., Element_Size_Interface_1};
Point(16)={ 1083.3333333333333, -116.49419774810565,0., Element_Size_Interface_1};
Point(17)={ 1166.6666666666665, -133.92081920972413,0., Element_Size_Interface_1};
Point(18)={ 1250.0, -120.35513725583037,0., Element_Size_Interface_1};
Point(19)={ 1333.3333333333333, -115.83211424884882,0., Element_Size_Interface_1};
Point(20)={ 1416.6666666666665, -104.6615290981487,0., Element_Size_Interface_1};
Point(21)={ 1500.0, -148.50285509325806,0., Element_Size_Interface_1};
Point(22)={ 1583.3333333333333, -102.76769288101366,0., Element_Size_Interface_1};
Point(23)={ 1666.6666666666665, -93.25585634811914,0., Element_Size_Interface_1};
Point(24)={ 1750.0, -79.5281026533412,0., Element_Size_Interface_1};
Point(25)={ 1833.3333333333333, -109.97841397929504,0., Element_Size_Interface_1};
Point(26)={ 1916.6666666666665, -141.13616483235455,0., Element_Size_Interface_1};
Point(27)={ 2000.0, -100.49072147735633,0., Element_Size_Interface_1};
Spline(2)={ 3, 4, 5, 6, 7, 8, 9, 10, 11, 12, 13, 14, 15, 16, 17, 18, 19, 20, 21, 22, 23, 24, 25, 26, 27 };
Line(3)={ 3, 1};
Line(4)={ 27, 2};
Line Loop(1) = {2, 4, -1, -3};
Plane Surface(1) = {1};
Physical Surface("L1") = {1};
Element_Size_Interface_2 = (Element_Size_Layer_2 > Element_Size_Layer_3) ? Element_Size_Layer_3 : Element_Size_Layer_2;
Point(28)={ 0.0, -301.9195567771792,0., Element_Size_Interface_2};
Point(29)={ 222.22222222222223, -296.22123411878084,0., Element_Size_Interface_2};
Point(30)={ 444.44444444444446, -305.74935814863574,0., Element_Size_Interface_2};
Point(31)={ 666.6666666666667, -306.2036492423545,0., Element_Size_Interface_2};
Point(32)={ 888.8888888888889, -303.56901521960714,0., Element_Size_Interface_2};
Point(33)={ 1111.111111111111, -300.87210020875796,0., Element_Size_Interface_2};
Point(34)={ 1333.3333333333335, -301.1859628610075,0., Element_Size_Interface_2};
Point(35)={ 1555.5555555555557, -298.9805227674053,0., Element_Size_Interface_2};
Point(36)={ 1777.7777777777778, -297.4397341437465,0., Element_Size_Interface_2};
Point(37)={ 2000.0, -299.6004304962726,0., Element_Size_Interface_2};
Spline(5)={ 28, 29, 30, 31, 32, 33, 34, 35, 36, 37 };
Line(6)={ 28, 3};
Line(7)={ 37, 27};
Line Loop(2) = {5, 7, -2, -6};
Plane Surface(2) = {2};
Physical Surface("L2") = {2};
Element_Size_Interface_3 = (Element_Size_Layer_3 > Element_Size_Layer_4) ? Element_Size_Layer_4 : Element_Size_Layer_3;
Point(38)={ 0.0, -311.74938248700505,0., Element_Size_Interface_3};
Point(39)={ 222.22222222222223, -312.5695759464587,0., Element_Size_Interface_3};
Point(40)={ 444.44444444444446, -308.60747165810517,0., Element_Size_Interface_3};
Point(41)={ 666.6666666666667, -307.94698995540904,0., Element_Size_Interface_3};
Point(42)={ 888.8888888888889, -312.2326283707273,0., Element_Size_Interface_3};
Point(43)={ 1111.111111111111, -304.1167973438439,0., Element_Size_Interface_3};
Point(44)={ 1333.3333333333335, -312.6009242243764,0., Element_Size_Interface_3};
Point(45)={ 1555.5555555555557, -310.4428573349533,0., Element_Size_Interface_3};
Point(46)={ 1777.7777777777778, -310.616612077833,0., Element_Size_Interface_3};
Point(47)={ 2000.0, -311.3264778459138,0., Element_Size_Interface_3};
Spline(8)={ 38, 39, 40, 41, 42, 43, 44, 45, 46, 47 };
Line(9)={ 38, 28};
Line(10)={ 47, 37};
Line Loop(3) = {8, 10, -5, -9};
Plane Surface(3) = {3};
Physical Surface("L3") = {3};
Element_Size_Interface_4 = (Element_Size_Layer_4 > Element_Size_Layer_5) ? Element_Size_Layer_5 : Element_Size_Layer_4;
Point(48)={ 0.0, -498.52329671100006,0., Element_Size_Interface_4};
Point(49)={ 105.26315789473684, -470.75865240234475,0., Element_Size_Interface_4};
Point(50)={ 210.52631578947367, -502.8299081615061,0., Element_Size_Interface_4};
Point(51)={ 315.7894736842105, -496.0225590843391,0., Element_Size_Interface_4};
Point(52)={ 421.05263157894734, -493.8774174211322,0., Element_Size_Interface_4};
Point(53)={ 526.3157894736842, -465.92095188319547,0., Element_Size_Interface_4};
Point(54)={ 631.578947368421, -493.70945120104994,0., Element_Size_Interface_4};
Point(55)={ 736.8421052631578, -503.0586306516136,0., Element_Size_Interface_4};
Point(56)={ 842.1052631578947, -472.7495333803999,0., Element_Size_Interface_4};
Point(57)={ 947.3684210526316, -527.4256114890824,0., Element_Size_Interface_4};
Point(58)={ 1052.6315789473683, -486.1316932423422,0., Element_Size_Interface_4};
Point(59)={ 1157.8947368421052, -485.5842013403327,0., Element_Size_Interface_4};
Point(60)={ 1263.157894736842, -521.9098440864375,0., Element_Size_Interface_4};
Point(61)={ 1368.421052631579, -501.979039101785,0., Element_Size_Interface_4};
Point(62)={ 1473.6842105263156, -498.5580714797826,0., Element_Size_Interface_4};
Point(63)={ 1578.9473684210525, -526.3084821822695,0., Element_Size_Interface_4};
Point(64)={ 1684.2105263157894, -538.4221502498863,0., Element_Size_Interface_4};
Point(65)={ 1789.4736842105262, -493.46123270926734,0., Element_Size_Interface_4};
Point(66)={ 1894.7368421052631, -543.328464583159,0., Element_Size_Interface_4};
Point(67)={ 2000.0, -496.06989610520424,0., Element_Size_Interface_4};
Spline(11)={ 48, 49, 50, 51, 52, 53, 54, 55, 56, 57, 58, 59, 60, 61, 62, 63, 64, 65, 66, 67 };
Line(12)={ 48, 38};
Line(13)={ 67, 47};
Line Loop(4) = {11, 13, -8, -12};
Plane Surface(4) = {4};
Physical Surface("L4") = {4};
Element_Size_Interface_5 = (Element_Size_Layer_5 > Element_Size_Layer_6) ? Element_Size_Layer_6 : Element_Size_Layer_5;
Point(68)={ 0.0, -715.8071855729374,0., Element_Size_Interface_5};
Point(69)={ 105.26315789473684, -696.2442363015853,0., Element_Size_Interface_5};
Point(70)={ 210.52631578947367, -686.6762915895476,0., Element_Size_Interface_5};
Point(71)={ 315.7894736842105, -719.9762572843754,0., Element_Size_Interface_5};
Point(72)={ 421.05263157894734, -727.4523960943354,0., Element_Size_Interface_5};
Point(73)={ 526.3157894736842, -717.1842246950695,0., Element_Size_Interface_5};
Point(74)={ 631.578947368421, -686.6164711057304,0., Element_Size_Interface_5};
Point(75)={ 736.8421052631578, -740.0694403184006,0., Element_Size_Interface_5};
Point(76)={ 842.1052631578947, -672.1164804571766,0., Element_Size_Interface_5};
Point(77)={ 947.3684210526316, -705.8096736606916,0., Element_Size_Interface_5};
Point(78)={ 1052.6315789473683, -667.2195470071758,0., Element_Size_Interface_5};
Point(79)={ 1157.8947368421052, -707.1143737186322,0., Element_Size_Interface_5};
Point(80)={ 1263.157894736842, -643.6525505436869,0., Element_Size_Interface_5};
Point(81)={ 1368.421052631579, -686.1212797879692,0., Element_Size_Interface_5};
Point(82)={ 1473.6842105263156, -716.8643592620512,0., Element_Size_Interface_5};
Point(83)={ 1578.9473684210525, -716.7859849483023,0., Element_Size_Interface_5};
Point(84)={ 1684.2105263157894, -686.3693260334608,0., Element_Size_Interface_5};
Point(85)={ 1789.4736842105262, -690.1917219249091,0., Element_Size_Interface_5};
Point(86)={ 1894.7368421052631, -697.2029454384808,0., Element_Size_Interface_5};
Point(87)={ 2000.0, -704.015126427323,0., Element_Size_Interface_5};
Spline(14)={ 68, 69, 70, 71, 72, 73, 74, 75, 76, 77, 78, 79, 80, 81, 82, 83, 84, 85, 86, 87 };
Line(15)={ 68, 48};
Line(16)={ 87, 67};
Line Loop(5) = {14, 16, -11, -15};
Plane Surface(5) = {5};
Physical Surface("L5") = {5};
Element_Size_Interface_6 = Element_Size_Layer_6;
Point(88)={ 0.0, -1000.0,0., Element_Size_Interface_6};
Point(89)={ 2000.0, -1000.0,0., Element_Size_Interface_6};
Line(17)={ 88, 89};
Line(18)={ 88, 68};
Line(19)={ 89, 87};
Line Loop(6) = {17, 19, -14, -18};
Plane Surface(6) = {6};
Physical Surface("L6") = {6};
